1 	5 	6	7 	8	11	12	13	14	15	16	17	19	20	56
1.0079 	10.811	12.011 	14.007	15.999	22.990	24.305	26.982	28.086	30.974	32.060	35.453	39.098	40.078	137.33	

8.80	0.0	67.50	3.50	18.60	0.0	0.0	0.0	0.0	0.0	0.0	1.60	0.0	0.0	0.0
8.90	0.0	66.00	2.40	20.40	0.0	0.0	0.0	0.0	0.0	0.0	0.60	0.0	1.70	0.0
9.60	0.0	70.30	1.90	17.00	0.0	0.0	0.0	0.0	0.0	0.0	0.20	0.0	0.90	0.0
9.00	0.0	69.40	2.10	17.10	0.0	0.0	0.0	0.0	0.0	0.0	0.10	0.0	2.20	0.0
9.10	0.0	69.70	2.10	16.80	0.0	0.0	0.0	0.0	0.0	0.0	0.10	0.0	2.20	0.0
10.00	0.0	71.30	1.80	16.40	0.0	0.0	0.0	0.0	0.0	0.0	0.20	0.0	0.30	0.0	
9.60	0.0	70.30	1.90	17.0	0.0	0.0	0.0	0.0	0.0	0.0	0.20	0.0	0.90	0.0
9.00	0.0	69.40	2.10	17.10	0.0	0.0	0.0	0.0	0.0	0.0	0.10	0.0	2.20	0.0
9.10	0.0	69.70	2.10	16.80	0.0	0.0	0.0	0.0	0.0	0.0	0.10	0.0	2.20	0.0
7.00	0.0	56.30	2.00	22.70	0.0	0.0	0.0	0.0	3.30	0.0	0.20	0.0	8.50	0.0
5.70	0.0	40.80	1.00	25.90	0.0	0.0	0.0	0.0	8.30	0.07	0.03	0.0	17.90	0.28
3.60	0.0	28.80	1.10	32.00	0.0	0.0	0.0	0.0	10.80	0.08	0.04	0.0	23.30	0.32
2.30	0.0	17.90	0.70	35.60	0.0	0.0	0.0	0.0	13.70	0.05	0.02	0.0	29.60	0.20





